<svg height="300px" width="300px" fill="#000000" xmlns="http://www.w3.org/2000/svg" xmlns:xlink="http://www.w3.org/1999/xlink" xml:space="preserve" version="1.1" style="shape-rendering:geometricPrecision;text-rendering:geometricPrecision;image-rendering:optimizeQuality;" viewBox="0 0 8467 8467" x="0px" y="0px" fill-rule="evenodd" clip-rule="evenodd"><defs><style type="text/css">
   
    .fil0 {fill:#000000}
   
  </style></defs><g><path class="fil0" d="M8213 3691l0 1085c0,299 -243,543 -543,543l-2351 0 0 2351c0,300 -243,543 -543,543l-1085 0c-300,0 -543,-244 -543,-543l0 -2352 -2351 1c-300,0 -543,-244 -543,-543l0 -1085c0,-300 243,-543 543,-543l2351 0 0 -2351c0,-300 243,-543 543,-543l1085 0c300,0 543,243 543,543l0 2351 2351 0c300,0 543,243 543,543l0 0z"/></g></svg>